{
  "kind": "singleType",
  "collectionName": "privacy_policies",
  "info": {
    "name": "privacy-policy"
  },
  "options": {
    "increments": true,
    "timestamps": true,
    "draftAndPublish": true
  },
  "pluginOptions": {},
  "attributes": {
    "title": {
      "type": "string"
    },
    "text": {
      "type": "richtext"
    }
  }
}
